{
    "editor": [
        {
            "icon": "",
            "key": "preGameScreen",
            "header": "PreGameScreen",
            "disabled": false,
            "fields": [
                {
                    "key": "titleText",
                    "header": "Title Text",
                    "type": "text"
                },
                {
                    "key": "titleTextSize",
                    "header": "Title text size",
                    "type": "range",
                    "options": {
                        "minValue": 20,
                        "maxValue": 40,
                        "stepSize": "1"
                    }
                },
                {
                    "key": "playButtonText",
                    "header": "Play Button Text",
                    "type": "text"
                },
                {
                    "key": "buttonTextColor",
                    "header": "Play Button Text Color",
                    "type": "color"
                },
                {
                    "key": "backgroundImage",
                    "header": "Background Image",
                    "type": "image"
                },
                {
                    "key": "backgroundMode",
                    "header": "Background image mode",
                    "type": "dropdown",
                    "options": [
                        "cover",
                        "fit"
                    ]
                },
                {
                    "key": "backgroundColor",
                    "header": "Background Color",
                    "type": "color"
                },
                {
                    "key": "titleImage",
                    "header": "Header Image",
                    "type": "image"
                },
                {
                    "key": "titleImageSize",
                    "header": "Header image size",
                    "type": "range",
                    "options": {
                        "minValue": 150,
                        "maxValue": 400,
                        "stepSize": "1"
                    }
                },
                {
                    "key": "cardColor",
                    "header": "Card Color",
                    "type": "color"
                },
                {
                    "key": "buttonColor",
                    "header": "Play Button Color",
                    "type": "color"
                },
                {
                    "key": "fontFamily",
                    "header": "Google Font Name",
                    "type": "text"
                },
                {
                    "key": "showLeaderboardButton",
                    "header": "Show leaderboard button",
                    "type": "boolean"
                },
                {
                    "key": "leaderboardButtonText",
                    "header": "Leaderboard button text",
                    "type": "text"
                },
                {
                    "key": "showSoundButton",
                    "header": "Show sound button",
                    "type": "boolean"
                },
                {
                    "key": "soundEnabledIcon",
                    "type": "image",
                    "header": "Sound enabled icon"
                },
                {
                    "key": "soundDisabledIcon",
                    "type": "image",
                    "header": "Sound disabled icon"
                },
                {
                    "key": "currentScreen",
                    "header": "Debug: screen view",
                    "type": "dropdown",
                    "options": [
                        "preGameScreen",
                        "gameScreen",
                        "postGameScreen"
                    ]
                }
            ]
        },
        {
            "icon": "",
            "key": "settings",
            "header": "Game Settings",
            "disabled": false,
            "fields": [
                {
                    "key": "instructions1",
                    "type": "text",
                    "header": "Instructions Text 1"
                },
                {
                    "key": "instructions2",
                    "type": "text",
                    "header": "Instructions Text 2"
                },
                {
                    "key": "instructions3",
                    "type": "text",
                    "header": "Instructions Text 3"
                },
                {
                    "key": "scoreToWin",
                    "header": "Score required to win",
                    "type": "range",
                    "options": {
                        "stepSize": 1,
                        "minValue": 0,
                        "maxValue": 100
                    }
                },
                {
                    "key": "pipeBody",
                    "header": "Pipe body image",
                    "type": "image"
                },
                {
                    "key": "pipeHead",
                    "header": "Pipe end image",
                    "type": "image"
                },
                {
                    "key": "idle",
                    "header": "Bird idle image",
                    "type": "image"
                },
                {
                    "key": "jump",
                    "header": "Bird jump image",
                    "type": "image"
                },
                {
                    "key": "coins",
                    "header": "Coin images",
                    "type": "array",
                    "fields": [
                        {
                            "key": "coin1",
                            "header": "Coin 1",
                            "type": "image"
                        },
                        {
                            "key": "coin2",
                            "header": "Coin 2",
                            "type": "image"
                        }
                    ]
                },
                {
                    "key": "gapLevel",
                    "header": "Gap size",
                    "type": "range",
                    "options": {
                        "minValue": 1,
                        "maxValue": 4,
                        "stepSize": 1
                    }
                },
                {
                    "key": "spawnCd",
                    "header": "Distance between gates",
                    "type": "range",
                    "options": {
                        "minValue": 1,
                        "maxValue": 4,
                        "stepSize": 1
                    }
                },
                {
                    "key": "coinScore",
                    "header": "Extra score per coin",
                    "type": "range",
                    "options": {
                        "minValue": 0,
                        "maxValue": 5,
                        "stepSize": 1
                    }
                },
                {
                    "key": "confetti",
                    "header": "Show confetti when player wins",
                    "type": "boolean"
                },
                {
                    "key": "jumpParticles",
                    "header": "Show jump particles",
                    "type": "boolean"
                },
                {
                    "key": "jumpParticlesColor",
                    "header": "Jump particles color",
                    "type": "color"
                },
                {
                    "key": "textColor",
                    "header": "In Game Text Color",
                    "type": "color"
                },
                {
                    "key": "loseText",
                    "header": "Lose text",
                    "type": "text"
                },
                {
                    "key": "winText",
                    "header": "Win text",
                    "type": "text"
                },
                {
                    "key": "tap",
                    "header": "Tap sound effect",
                    "type": "sound"
                },
                {
                    "key": "coinSound",
                    "header": "Coin collect sound",
                    "type": "sound"
                },
                {
                    "key": "theme",
                    "header": "Background Music",
                    "type": "sound"
                },
                {
                    "key": "lose",
                    "header": "Lose sound effect",
                    "type": "sound"
                },
                {
                    "key": "volume",
                    "header": "Background music volume",
                    "type": "range",
                    "options": {
                        "minValue": 0,
                        "maxValue": 1,
                        "stepSize": "0.1"
                    }
                }
            ]
        },
        {
            "icon": "",
            "key": "postGameScreen",
            "header": "Post Game Screen",
            "disabled": false,
            "fields": [
                {
                    "key": "scoreText",
                    "header": "Text before score",
                    "type": "text"
                },
                {
                    "key": "textColor",
                    "header": "Text Color",
                    "type": "color"
                },
                {
                    "key": "buttonTextColor",
                    "header": "Button text color",
                    "type": "color"
                },
                {
                    "key": "cardColor",
                    "header": "Card Background Color",
                    "type": "color"
                },
                {
                    "key": "playButtonText",
                    "header": "Play again button text",
                    "type": "text"
                },
                {
                    "key": "buttonColor",
                    "header": "Buttons color",
                    "type": "color"
                },
                {
                    "key": "buttonTextColor",
                    "header": "Buttons text color",
                    "type": "color"
                },
                {
                    "key": "showText",
                    "header": "Show custom text",
                    "type": "boolean"
                },
                {
                    "key": "customText",
                    "header": "Custom text",
                    "type": "text"
                },
                {
                    "key": "submitName",
                    "header": "Show name field",
                    "type": "boolean"
                },
                {
                    "key": "submitEmail",
                    "header": "Show email field",
                    "type": "boolean"
                },
                {
                    "key": "submitScoreText",
                    "header": "Submit score button text",
                    "type": "text"
                },
                {
                    "key": "showLeadeboardButtonPostGameScreen",
                    "header": "Show Leadeboard Button",
                    "type": "boolean"
                },
                {
                    "key": "leaderboardButtonText",
                    "type": "text",
                    "header": "Leadeboard button text"
                },
                {
                    "key": "showCTA",
                    "header": "Show CTA Button",
                    "type": "boolean"
                },
                {
                    "key": "ctaText",
                    "header": "CTA text",
                    "type": "text"
                },
                {
                    "key": "ctaButtonText",
                    "header": "CTA button text",
                    "type": "text"
                },
                {
                    "key": "ctaUrl",
                    "header": "CTA Link",
                    "type": "text"
                }
            ]
        }
    ],
    "config": {
        "preGameScreen": {
            "titleText": "Fly with Sam ",
            "titleTextSize": 30,
            "playButtonText": "Play",
            "cardColor": "#fbf7f7",
            "buttonColor": "#1b1b1a",
            "buttonTextColor": "#ffffff",
            "backgroundImage": "http://frontend.apps.playcent.com/826f45b6cd62415a92ff0954fab9b524/assets/city-skyline (1).png",
            "backgroundColor": "#ffffff",
            "backgroundMode": "cover",
            "titleImage": "http://frontend.apps.playcent.com/826f45b6cd62415a92ff0954fab9b524/assets/image-removebg-preview__1_-removebg-preview.png",
            "titleImageSize": 200,
            "fontFamily": "Oxygen",
            "showLeaderboardButton": true,
            "leaderboardButtonText": "Leaderboard",
            "showSoundButton": true,
            "soundEnabledIcon": "http://frontend.apps.playcent.com/ftx/assets/sound_on.png",
            "soundDisabledIcon": "http://frontend.apps.playcent.com/ftx/assets/sound_off.png",
            "currentScreen": "preGameScreen"
        },
        "settings": {
            "instructions1": "Tap / Spacebar to jump",
            "instructions2": "Stay between the pipes!",
            "instructions3": "Have fun!",
            "scoreToWin": 25,
            "textColor": "#1b1b1b",
            "pipeHead": "http://frontend.apps.playcent.com/826f45b6cd62415a92ff0954fab9b524/assets/unnamed (4).png",
            "pipeBody": "http://frontend.apps.playcent.com/826f45b6cd62415a92ff0954fab9b524/assets/Studio_Project (4).jpg",
            "idle": "http://frontend.apps.playcent.com/826f45b6cd62415a92ff0954fab9b524/assets/image-removebg-preview__1_-removebg-preview.png",
            "jump": "http://frontend.apps.playcent.com/826f45b6cd62415a92ff0954fab9b524/assets/image-removebg-preview__1_-removebg-preview (1).png",
            "coins": {
                "coin1": "http://frontend.apps.playcent.com/826f45b6cd62415a92ff0954fab9b524/assets/btcbear-removebg-preview.png",
                "coin2": "http://frontend.apps.playcent.com/826f45b6cd62415a92ff0954fab9b524/assets/btcbull-removebg-preview (1).png"
            },
            "confetti": true,
            "jumpParticles": true,
            "jumpParticlesColor": "#ffffff",
            "gapLevel": 4,
            "spawnCd": 3,
            "coinScore": 3,
            "loseText": "Maybe next time!",
            "winText": "Congrats, you won!",
            "theme": "http://frontend.apps.playcent.com/826f45b6cd62415a92ff0954fab9b524/assets/Final_Boss (mp3cut.net) (1).mp3",
            "volume": "0.7",
            "tap": "http://frontend.apps.playcent.com/826f45b6cd62415a92ff0954fab9b524/assets/488275__combine2005__flappy-whoosh.mp3",
            "coinSound": "http://frontend.apps.playcent.com/826f45b6cd62415a92ff0954fab9b524/assets/402288__matrixxx__retro-coin-02.mp3",
            "lose": "http://frontend.apps.playcent.com/826f45b6cd62415a92ff0954fab9b524/assets/157218__adamweeden__video-game-die-or-lose-life.mp3"
        },
        "postGameScreen": {
            "scoreText": "Your score is: ",
            "playButtonText": "Play Again",
            "buttonColor": "#1b1b1a",
            "cardColor": "#ffffff",
            "textColor": "#000000",
            "buttonTextColor": "#ffffff",
            "showLeadeboardButtonPostGameScreen": true,
            "submitScoreText": "Submit score",
            "leaderboardButtonText": "Leaderboard",
            "showText": true,
            "customText": "FTXGAME",
            "submitName": true,
            "submitEmail": true,
            "showCTA": true,
            "ctaText": "Check out our website",
            "ctaButtonText": "Go to FTX",
            "ctaUrl": "https://ftx.com"
        }
    }
}